{
    "tools": [
        {
            "id": 14,
            "name": "Generator",
            "description": "Generate New Normies",
            "url": "https://legacy.normies.art/",
            "thumbnailUrl": "https://i.imgur.com/OiThXuB.png",
            "creator": "serc1n",
            "official": true,
            "upvoteCount": 0,
            "upvotedByMe": false
        },
        {
            "id": 35,
            "name": "Remixer",
            "description": "What if we could create new Normies using the existing ones? Remixer allows you to do this!",
            "url": "https://normie-mixer.vercel.app/",
            "thumbnailUrl": "https://i.imgur.com/vunvn4C.png",
            "creator": "Vizou01",
            "official": false,
            "upvoteCount": 0,
            "upvotedByMe": false
        },
        {
            "id": 9,
            "name": "Messages from Normies",
            "description": "A message board for Normies",
            "url": "https://messages-from-normies-production.up.railway.app/",
            "thumbnailUrl": "https://i.imgur.com/282Cv7o.png",
            "creator": "OsayKancuno",
            "official": false,
            "upvoteCount": 0,
            "upvotedByMe": false
        },
        {
            "id": 7,
            "name": "Memory Game",
            "description": "A mini-game where your challenge is to remember Normies",
            "url": "https://editor.p5js.org/nftgothsa/full/StEIA7Ldo",
            "thumbnailUrl": "https://i.imgur.com/uf7xlZT.png",
            "creator": "nftgothsa",
            "official": false,
            "upvoteCount": 0,
            "upvotedByMe": false
        }
    ],
    "total": 49,
    "page": 4,
    "totalPages": 4
}
{
    "tools": [
        {
            "id": 30,
            "name": "Flip",
            "description": "A fully playable Reversi battle powered by the official NORMIES API",
            "url": "https://normies-flip.vercel.app/",
            "thumbnailUrl": "https://i.imgur.com/OIbOH0t.png",
            "creator": "mittooney",
            "official": false,
            "upvoteCount": 0,
            "upvotedByMe": false
        },
        {
            "id": 6,
            "name": "Normie Card",
            "description": "Generate a trading card for your Normie",
            "url": "https://legacy.normies.art/normiecard",
            "thumbnailUrl": "https://i.imgur.com/UjJXIjQ.png",
            "creator": "serc1n",
            "official": true,
            "upvoteCount": 0,
            "upvotedByMe": false
        },
        {
            "id": 29,
            "name": "Normies Painter",
            "description": "",
            "url": "https://editor.p5js.org/realseenaa/full/75oCNlnMp",
            "thumbnailUrl": "https://i.imgur.com/E966BYt.png",
            "creator": "realseenaa",
            "official": false,
            "upvoteCount": 0,
            "upvotedByMe": false
        },
        {
            "id": 41,
            "name": "DoPhils Pixel/Normie-Hunter",
            "description": "Find the cheapest pixels on the market or work on the canvas and find the cheapest normie to get your art onchain!",
            "url": "https://dophil.vercel.app/",
            "thumbnailUrl": "https://i.ibb.co/xtMbrfjG/Screenshot-20260412-235819-com-android-chrome-Chrome-Tabbed-Activity.jpg",
            "creator": "@xbtphil",
            "official": false,
            "upvoteCount": 0,
            "upvotedByMe": false
        },
        {
            "id": 16,
            "name": "Normie Beats",
            "description": "",
            "url": "https://normiebeats.vercel.app/",
            "thumbnailUrl": "https://i.imgur.com/en6xFU2.png",
            "creator": "lampwrecked_",
            "official": false,
            "upvoteCount": 0,
            "upvotedByMe": false
        },
        {
            "id": 36,
            "name": "Negative",
            "description": "See any Normie's negative",
            "url": "https://normies-negative.vercel.app/",
            "thumbnailUrl": "https://i.imgur.com/v0as64Z.png",
            "creator": "Vizou01",
            "official": false,
            "upvoteCount": 0,
            "upvotedByMe": false
        },
        {
            "id": 4,
            "name": "Normies Run",
            "description": "Side scroller runner game based on Normies!",
            "url": "https://normies.run/",
            "thumbnailUrl": "https://i.imgur.com/oknJ5dF.png",
            "creator": "LiverpoolMTB",
            "official": false,
            "upvoteCount": 0,
            "upvotedByMe": false
        },
        {
            "id": 23,
            "name": "PvP",
            "description": "Which Normie look better?",
            "url": "https://legacy.normies.art/pvp",
            "thumbnailUrl": "https://i.imgur.com/A5dFmDl.png",
            "creator": "serc1n",
            "official": true,
            "upvoteCount": 0,
            "upvotedByMe": false
        },
        {
            "id": 44,
            "name": "Normie Canvas Lab (history of Custom Normies)",
            "description": "Compare original vs composited Normies art from api.normies.art: side‑by‑side PNGs, pixel diff (adds/removes), canvas info (AP, level, customized, delegate), optional burn / transform history for the token, and a collapsible 3D preview of the same ID.",
            "url": "https://normie-canvas-lab.pages.dev/",
            "thumbnailUrl": "https://normie-canvas-lab.pages.dev/thumbnail-lab.png",
            "creator": "@Trailertrsh",
            "official": false,
            "upvoteCount": 0,
            "upvotedByMe": false
        },
        {
            "id": 1,
            "name": "Slide Puzzle",
            "description": "Solve slide puzzles created by Normies!",
            "url": "https://normie-puzzle.vercel.app/",
            "thumbnailUrl": "https://i.imgur.com/hajEhe8.png",
            "creator": "nutardios",
            "official": false,
            "upvoteCount": 0,
            "upvotedByMe": false
        },
        {
            "id": 49,
            "name": "Normie Chat (Chat with Awakened Normies)",
            "description": "Chat/Talk with any awakened Normie. Use the default computer voice, or add your eleven labs key in settings to assign your own voice.",
            "url": "https://normie-canvas-lab.jbjbjb2112.workers.dev/agent",
            "thumbnailUrl": "https://normie-canvas-lab.jbjbjb2112.workers.dev/thumbnail-agent.png",
            "creator": "@trailertrsh",
            "official": false,
            "upvoteCount": 0,
            "upvotedByMe": false
        },
        {
            "id": 22,
            "name": "Pixel Hunter",
            "description": "Space Invaders type Normies video game!",
            "url": "https://normies-pixelhunter-ac26.vercel.app/",
            "thumbnailUrl": "https://i.imgur.com/9TtdnWS.png",
            "creator": "Dario_Desiena",
            "official": false,
            "upvoteCount": 0,
            "upvotedByMe": false
        },
        {
            "id": 45,
            "name": "Normie GIF evolution",
            "description": "Build animated GIFs from a Normie token: Evolution mode walks indexed canvas versions from the API (best for edited Normies); Mint motion loop builds a short loop from one composited PNG when you don’t need version history. Adjustable frame count, size, delay, and optional original frame.",
            "url": "https://normie-canvas-lab.pages.dev/gif",
            "thumbnailUrl": "https://normie-canvas-lab.pages.dev/thumbnail-gif.png",
            "creator": "@Trailertrsh",
            "official": false,
            "upvoteCount": 0,
            "upvotedByMe": false
        },
        {
            "id": 43,
            "name": "Normie 3D GLB Creator",
            "description": "Load SVG (or fallback pixels) from api.normies.art, extrude paths in the browser, turntable + lighting controls, optional back plate, mesh gradient and solid face/plate colors, shadows, and download GLB — with optional bake gradient into vertex colors for standard‑material exports.",
            "url": "https://normie-canvas-lab.pages.dev/3d",
            "thumbnailUrl": "https://normie-canvas-lab.pages.dev/thumbnail-3d.png",
            "creator": "@Trailertrsh",
            "official": false,
            "upvoteCount": 0,
            "upvotedByMe": false
        },
        {
            "id": 3,
            "name": "3D Normie",
            "description": "Create 3D Normies",
            "url": "https://normie-3d.vercel.app/",
            "thumbnailUrl": "https://i.imgur.com/WxuhlvD.png",
            "creator": "0xfilter8",
            "official": false,
            "upvoteCount": 0,
            "upvotedByMe": false
        }
    ],
    "total": 49,
    "page": 3,
    "totalPages": 4
}
{
    "tools": [
        {
            "id": 47,
            "name": "Normies Node",
            "description": "Find your Normie in 10,000",
            "url": "https://normiesnode.up.railway.app/",
            "thumbnailUrl": "https://i.imgur.com/m6zPSnC.png",
            "creator": "@serc1n",
            "official": true,
            "upvoteCount": 0,
            "upvotedByMe": false
        },
        {
            "id": 46,
            "name": "Normies R3M1X3R",
            "description": "Remix, edit and export your favorite Normies NFTs.\n- Draw and transform\n- Add speech bubbles\n- Place stickers\n- Export as PNG",
            "url": "https://normies-remixer.vercel.app",
            "thumbnailUrl": "https://normies-remixer.vercel.app/thumbnail.png",
            "creator": "@Flim81",
            "official": false,
            "upvoteCount": 0,
            "upvotedByMe": false
        },
        {
            "id": 15,
            "name": "Yearbook",
            "description": "",
            "url": "https://normie-yearbook.vercel.app/",
            "thumbnailUrl": "https://i.imgur.com/Wq1QCkx.png",
            "creator": "KarlKestis",
            "official": false,
            "upvoteCount": 0,
            "upvotedByMe": false
        },
        {
            "id": 40,
            "name": "Daily Roulette",
            "description": "",
            "url": "https://normies-daily.vercel.app/",
            "thumbnailUrl": "https://i.imgur.com/Heu5gN9.png",
            "creator": "Vizou01",
            "official": false,
            "upvoteCount": 0,
            "upvotedByMe": false
        },
        {
            "id": 13,
            "name": "Normifier",
            "description": "Normify any image you want",
            "url": "https://normifier.vercel.app/",
            "thumbnailUrl": "https://i.imgur.com/51zGoDu.png",
            "creator": "yigitduman",
            "official": true,
            "upvoteCount": 0,
            "upvotedByMe": false
        },
        {
            "id": 21,
            "name": "Minesweeper",
            "description": "Play Minesweeper with your Normies",
            "url": "https://norminesweeper.vercel.app/",
            "thumbnailUrl": "https://i.imgur.com/SzRT6Su.png",
            "creator": "Vizou01",
            "official": false,
            "upvoteCount": 0,
            "upvotedByMe": false
        },
        {
            "id": 5,
            "name": "Border Control",
            "description": "A video game where you're doing Border Control on Normies",
            "url": "https://normies-border-control.vercel.app/",
            "thumbnailUrl": "https://i.imgur.com/VjERes4.png",
            "creator": "Vizou01",
            "official": false,
            "upvoteCount": 0,
            "upvotedByMe": false
        },
        {
            "id": 19,
            "name": "Blackjack",
            "description": "",
            "url": "https://normies-blackjack.vercel.app/",
            "thumbnailUrl": "https://i.imgur.com/rNHw7Ae.png",
            "creator": "Bellerophontis2",
            "official": false,
            "upvoteCount": 0,
            "upvotedByMe": false
        },
        {
            "id": 37,
            "name": "Draw Your Normie (PDF)",
            "description": "A PDF file to print a 40x40 canvas and paint new Normies physically",
            "url": "https://raw.githubusercontent.com/Gothsa/normies/main/drawyournormie.pdf",
            "thumbnailUrl": "https://i.imgur.com/idEcyoo.png",
            "creator": "nftgothsa",
            "official": false,
            "upvoteCount": 0,
            "upvotedByMe": false
        },
        {
            "id": 32,
            "name": "Pop Art",
            "description": "Turn your Normies into Pop Art",
            "url": "https://editor.p5js.org/realseenaa/full/BEumjluT_",
            "thumbnailUrl": "https://i.imgur.com/RvcoL5X.png",
            "creator": "realseenaa",
            "official": false,
            "upvoteCount": 0,
            "upvotedByMe": false
        },
        {
            "id": 24,
            "name": "Lego Builder",
            "description": "",
            "url": "https://normies-lego-builder.vercel.app/",
            "thumbnailUrl": "https://i.imgur.com/4x83Iit.png",
            "creator": "Vizou01",
            "official": false,
            "upvoteCount": 0,
            "upvotedByMe": false
        },
        {
            "id": 38,
            "name": "Pixel Grabber",
            "description": "",
            "url": "https://editor.p5js.org/nftmooods/full/PRBv_Bgoq",
            "thumbnailUrl": "https://i.imgur.com/TcVJ1Gy.png",
            "creator": "nftmooods",
            "official": false,
            "upvoteCount": 0,
            "upvotedByMe": false
        },
        {
            "id": 8,
            "name": "Normie Radio",
            "description": "Generative ambient music radio created with Normies data",
            "url": "https://yasuna-ide.github.io/normie-radio/",
            "thumbnailUrl": "https://i.imgur.com/lVcVjmP.png",
            "creator": "yasuna_ide",
            "official": false,
            "upvoteCount": 0,
            "upvotedByMe": false
        },
        {
            "id": 48,
            "name": "Normies World",
            "description": "A pixel survival game built for the Normies NFT community. Connect your wallet, pick your Normie, and fight to stay alive. Collect pixels, take down enemies, and climb the global leaderboard. Guests can jump in too.",
            "url": "https://normiesworld.com/",
            "thumbnailUrl": "https://normiesworld.com/thumbnail.png",
            "creator": "@SubtleScopes",
            "official": false,
            "upvoteCount": 0,
            "upvotedByMe": false
        },
        {
            "id": 28,
            "name": "Edit Normies",
            "description": "Have Fun with your On-Chain Normie",
            "url": "https://www.editnormies.com/",
            "thumbnailUrl": "https://i.imgur.com/iioBFrU.png",
            "creator": "SubtleScopes",
            "official": false,
            "upvoteCount": 0,
            "upvotedByMe": false
        }
    ],
    "total": 49,
    "page": 2,
    "totalPages": 4
}
{
    "tools": [
        {
            "id": 42,
            "name": "Normies Art Tools",
            "description": "Create artistic variations of any Normie, including color, effects, animations, data, download PNG or GIF of the history of Customized ones.",
            "url": "https://normies-art.vercel.app/",
            "thumbnailUrl": "https://i.imgur.com/cWcIEgP.png",
            "creator": "@taekwonkrypto",
            "official": false,
            "upvoteCount": 2,
            "upvotedByMe": false
        },
        {
            "id": 25,
            "name": "Bricks",
            "description": "Normie to Universal Brick Equivalent System",
            "url": "https://normies-x-bricks.vercel.app/",
            "thumbnailUrl": "https://i.imgur.com/NZYemyg.png",
            "creator": "klaushubben",
            "official": false,
            "upvoteCount": 0,
            "upvotedByMe": false
        },
        {
            "id": 17,
            "name": "Meme Generator",
            "description": "",
            "url": "https://normies-memegenerator.vercel.app/",
            "thumbnailUrl": "https://i.imgur.com/oHzjTIk.png",
            "creator": "beastoshii",
            "official": false,
            "upvoteCount": 0,
            "upvotedByMe": false
        },
        {
            "id": 27,
            "name": "Normies Archive",
            "description": "the complete pixel history of 10k on-chain faces.",
            "url": "https://normiesarchive.vercel.app/",
            "thumbnailUrl": "https://i.imgur.com/AUdM9IT.png",
            "creator": "aster0x",
            "official": false,
            "upvoteCount": 0,
            "upvotedByMe": false
        },
        {
            "id": 11,
            "name": "Normsky Generator",
            "description": "",
            "url": "https://normski-generator.vercel.app/",
            "thumbnailUrl": "https://i.imgur.com/dPQoGpy.png",
            "creator": "OsayKancuno",
            "official": false,
            "upvoteCount": 0,
            "upvotedByMe": false
        },
        {
            "id": 39,
            "name": "Match",
            "description": "onchain personality protocol v1.0",
            "url": "https://normies-match.netlify.app/",
            "thumbnailUrl": "https://i.imgur.com/RmFNWJT.png",
            "creator": "SPELL_WEB3",
            "official": false,
            "upvoteCount": 0,
            "upvotedByMe": false
        },
        {
            "id": 26,
            "name": "Normies Compat",
            "description": "How compatible your Normies are?",
            "url": "https://normies-compact.vercel.app/",
            "thumbnailUrl": "https://i.imgur.com/jBJH8ln.png",
            "creator": "mittooney",
            "official": false,
            "upvoteCount": 0,
            "upvotedByMe": false
        },
        {
            "id": 33,
            "name": "Glitch Normies",
            "description": "An on-chain art project built on top of Normies",
            "url": "https://glitch-normies.vercel.app/",
            "thumbnailUrl": "https://i.imgur.com/s9OVwvj.png",
            "creator": "0xfilter8",
            "official": false,
            "upvoteCount": 0,
            "upvotedByMe": false
        },
        {
            "id": 31,
            "name": "Burn Tracker",
            "description": "Tracking on-chain burns. Every face gone forever.",
            "url": "https://normiesburntracker.lovable.app/",
            "thumbnailUrl": "https://i.imgur.com/PLot9BI.png",
            "creator": "SpoliticusMedia",
            "official": false,
            "upvoteCount": 0,
            "upvotedByMe": false
        },
        {
            "id": 34,
            "name": "Terminal",
            "description": "Turn your Normie into ASCII art",
            "url": "https://normies-terminal.vercel.app/",
            "thumbnailUrl": "https://i.imgur.com/LTuosWh.png",
            "creator": "oxkagee",
            "official": false,
            "upvoteCount": 0,
            "upvotedByMe": false
        },
        {
            "id": 12,
            "name": "Back Punks",
            "description": "Generate Normie Punks",
            "url": "https://normies.backpunks.com/",
            "thumbnailUrl": "https://i.imgur.com/DZasUVY.png",
            "creator": "dsgncllctr",
            "official": false,
            "upvoteCount": 0,
            "upvotedByMe": false
        },
        {
            "id": 10,
            "name": "Grid",
            "description": "View & Arrange Your Collection",
            "url": "https://legacy.normies.art/grid",
            "thumbnailUrl": "https://i.imgur.com/y2PTLZJ.png",
            "creator": "serc1n",
            "official": true,
            "upvoteCount": 0,
            "upvotedByMe": false
        },
        {
            "id": 18,
            "name": "Normies News",
            "description": "Generate a newspaper cover for your Normie",
            "url": "https://legacy.normies.art/normiesnews",
            "thumbnailUrl": "https://i.imgur.com/SjHw0wf.png",
            "creator": "serc1n",
            "official": true,
            "upvoteCount": 0,
            "upvotedByMe": false
        },
        {
            "id": 2,
            "name": "Normie Cam",
            "description": "See yourself as a Normie",
            "url": "https://legacy.normies.art/normiecam",
            "thumbnailUrl": "https://i.imgur.com/DdHa4TG.png",
            "creator": "serc1n",
            "official": true,
            "upvoteCount": 0,
            "upvotedByMe": false
        },
        {
            "id": 20,
            "name": "Normie Saints",
            "description": "Create Saintwave Normies",
            "url": "https://normiesaint.vercel.app/",
            "thumbnailUrl": "https://i.imgur.com/dEDNgD3.png",
            "creator": "duygusaltk",
            "official": false,
            "upvoteCount": 0,
            "upvotedByMe": false
        }
    ],
    "total": 49,
    "page": 1,
    "totalPages": 4
}